{
  "footer": {
    "blocks": ["footer-layout.desktop", "footer-layout.mobile"]
  },
  "flex-layout.row#newsletter": {
    "children": ["newsletter"],
    "props": {
      "blockClass": "newsletter-container"
    }
  },
  "footer-layout.desktop": {
    "children": [
      "flex-layout.row#newsletter",
      "flex-layout.row#footer-1-desktop",
      "flex-layout.row#footer-2-desktop",
      "flex-layout.row#footer-3-desktop"
    ],
    "title": "Footer desktop"
  },
  "flex-layout.row#footer-1-desktop": {
    "title": "Footer menu",
    "children": [
      "vtex.menu@2.x:menu#Producto",
      "vtex.menu@2.x:menu#Cliente",
      "vtex.menu@2.x:menu#Sobre",
      "vtex.menu@2.x:menu#contact"
    ],
    "props": {
      "blockClass": "menu-row"
    }
  },
  "flex-layout.row#footer-2-desktop": {
    "props": {
      "blockClass": "container-footer2"
    },
    "children": [
      "accepted-payment-methods",
      "modal-trigger#binding-selector",
      "flex-layout.row#socialMedia"
    ]
  },
  "flex-layout.row#footer-3-desktop": {
    "children": ["flex-layout.col#menuLogo", "flex-layout.col#security"],
    "props": {
      "blockClass": "footer-3"
    }
  },
  "flex-layout.row#socialMedia": {
    "props": {
      "blockClass": "row-socialMedia"
    },
    "children": [
      "image#logoFacebook",
      "image#logoTwitter",
      "image#logoInstagram",
      "image#logoYoutube",
      "image#logoLinkedin"
    ]
  },
  "image#logoFacebook": {
    "props": {
      "src": "assets/facebook.png",
      "maxHeight": 100
    }
  },
  "image#logoTwitter": {
    "props": {
      "src": "assets/twitter.png",
      "maxHeight": 100
    }
  },
  "image#logoInstagram": {
    "props": {
      "src": "assets/instagram.png",
      "maxHeight": 100
    }
  },
  "image#logoYoutube": {
    "props": {
      "src": "assets/youtube.png",
      "maxHeight": 100
    }
  },
  "image#logoLinkedin": {
    "props": {
      "src": "assets/linkedin.png",
      "maxHeight": 100
    }
  },
  "flex-layout.row#credits-desktop": {
    "props": {
      "blockClass": "credits-acct",
      "preserveLayoutOnMobile": true
    },
    "children": [
      "flex-layout.col#developedby-container-desktop",
      "flex-layout.col#img-vtex-container-desktop"
    ],
    "title": "Footer ACCT"
  },
  "flex-layout.row#developedby-logos-container-desktop": {
    "props": {
      "blockClass": "container-developedby-desk",
      "preventHorizontalStretch": true
    },
    "children": []
  },
  "flex-layout.col#developedby-container-desktop": {
    "props": {
      "blockClass": "container-developedby-desk",
      "width": "50%"
    },
    "children": ["rich-text#developedBy"]
  },
  "flex-layout.col#img-vtex-container-desktop": {
    "props": {
      "blockClass": "container-logocopyright-desk",
      "width": "25%"
    },
    "children": ["image#vtex-footer"]
  },
  "image#logo-footer": {
    "props": {
      "src": "",
      "blockClass": "logo-giga-footer"
    },
    "title": "Footer logo"
  },
  "rich-text#footer": {
    "props": {
      "text": "VTEX Grocery - Copyright © Limited 2021",
      "blockClass": "footer-copyright"
    },
    "title": "Footer copyright text"
  },
  "flex-layout.row#credits": {
    "props": {
      "blockClass": "credits-acct"
    },
    "children": ["rich-text#developedBy"],
    "title": "Footer ACCT"
  },
  "rich-text#developedBy": {
    "props": {
      "text": "Developed by",
      "blockClass": "developedBy",
      "textAlignment": "CENTER"
    },
    "title": "Footer ACCT text"
  },
  "footer-layout.mobile": {
    "children": [
      "flex-layout.row#footer-menu-1-mobile",
      "flex-layout.row#footer-menu-2-mobile",
      "flex-layout.row#footer-menu-3-mobile",
      "flex-layout.row#footer-menu-4-mobile",
      "flex-layout.row#footer-3-mobile-infos",
      "flex-layout.row#credits-mobile"
    ],
    "title": "Footer mobile"
  },
  "flex-layout.row#footer-menu-1-mobile": {
    "title": "Footer - Mobile - Menu #1",
    "children": ["vtex.menu@2.x:menu#footer-mobile"],
    "props": {
      "blockClass": "menus-footer-container"
    }
  },
  "flex-layout.row#footer-menu-2-mobile": {
    "title": "Footer - Mobile - Menu #2",
    "children": ["vtex.menu@2.x:menu#footer-mobile-2"],
    "props": {
      "blockClass": "menus-footer-container"
    }
  },
  "flex-layout.row#footer-menu-3-mobile": {
    "title": "Footer - Mobile - Menu #3",
    "children": ["vtex.menu@2.x:menu#footer-mobile-3"],
    "props": {
      "blockClass": "menus-footer-container"
    }
  },
  "flex-layout.row#footer-menu-4-mobile": {
    "title": "Footer - Mobile - Menu #4",
    "children": ["vtex.menu@2.x:menu#footer-mobile-4"],
    "props": {
      "blockClass": "menus-footer-container"
    }
  },
  "flex-layout.row#footer-3-mobile": {
    "title": "Footer payment",
    "children": [
      "image#logo-footer",
      "rich-text#footer",
      "flex-layout.row#credits"
    ],
    "props": {
      "blockClass": "payment-methods-flags"
    }
  },
  "flex-layout.row#footer-3-mobile-infos": {
    "children": ["rich-text#footer"],
    "props": {
      "blockClass": "payment-methods-flags"
    }
  },
  "flex-layout.row#credits-mobile": {
    "props": {
      "blockClass": "credits-acct",
      "preserveLayoutOnMobile": true,
      "preventHorizontalStretch": true
    },
    "children": ["flex-layout.col#developedby-container-mobile"],
    "title": "Footer ACCT"
  },
  "flex-layout.col#developedby-container-mobile": {
    "props": {
      "blockClass": "container-developedby-mobile",
      "width": "50%"
    },
    "children": []
  },
  "flex-layout.col#img-vtex-container-mobile": {
    "props": {
      "blockClass": "container-logocopyright-mobile",
      "width": "25%"
    },
    "children": ["image#vtex-footer"]
  },
  "image#vtex-footer": {
    "props": {
      "src": "",
      "blockClass": "acct-logo-footer"
    },
    "title": "VTEX - Logo"
  },
  "flex-layout.row#modal-promo": {
    "children": ["modal-trigger#modal-promo"],
    "props": {
      "blockClass": "flexRow"
    }
  },
  "modal-trigger#modal-promo": {
    "children": ["rich-text#modal-promo", "modal-layout#modal-promo"]
  },
  "rich-text#modal-promo": {
    "props": {
      "text": "Promotions"
    }
  },
  "modal-layout#modal-promo": {
    "children": ["rich-text#modal-promo-content"]
  },
  "rich-text#modal-promo-content": {
    "props": {
      "text": "Hello"
    }
  },
  "flex-layout.col#security": {
    "children": [
      // "rich-text#address",
      //"flex-layout.row#logos-securty"
    ],
    "props": {
      "blockClass": "securityFooter"
    }
  },
  "rich-text#address": {
    "props": {
      "textAlignment": "CENTER",
      "textPosition": "CENTER",
      "text": "address",
      "textColor": "c-on-emphasis",
      "blockClass": "help-message"
    }
  },
  "accepted-payment-methods": {
    "props": {
      "paymentMethods": ["mastercard", "visa", "diners club"]
    }
  },
  "modal-trigger#binding-selector": {
    "children": ["current-binding", "modal-layout#binding-selector"]
  },
  "current-binding": {
    "props": {
      "display": "combined"
    }
  },
  "modal-layout#binding-selector": {
    "children": ["modal-header#binding-selector", "binding-selector"],
    "props": {
      "blockClass": "binding-selector-modal"
    }
  },
  "modal-header#binding-selector": {
    "props": {
      "showCloseButton": true,
      "iconCloseSize": 20,
      "blockClass": "modalHeader-BindingSelector"
    },
    "children": ["rich-text#binding-selector"]
  },
  "binding-selector": {
    "props": {
      "layout": "list",
      "display": "combined",
      "blockClass": "binding-selector"
    }
  },
  "rich-text#binding-selector": {
    "props": {
      "text": "Select your country",
      "blockClass": "modalTitle-BindingSelector"
    }
  }
}
