{
	"flex-layout.col#menuLogo": {
		"children": [
			"image#logo",
			"rich-text#footerCopyright"
		],
		"props": {
			"blockClass": "menuLogo-footer"
		}
	},
	"image#logo": {
		"props": {
			"src": "assets/logo-alimerka-footer.svg",
			"maxHeight": 100
		}
	},
	"rich-text#footerCopyright": {
		"props": {
			"blockClass": "footer-copyright",
			"text": "© VTEX All rights reserved"
		},
		"title": "Footer menu item"
	},
	"vtex.menu@2.x:menu#Producto": {
		"props": {
			"orientation": "vertical",
			"blockClass": "footer-block"
		},
		"children": [
			"flex-layout.col#menuProducto"
		],
		"title": "Footer block content"
	},
	"flex-layout.col#menuProducto": {
		"props": {
			"blockClass": "footer-block-content"
		},
		"children": [
			"rich-text#productoTitle",
			"menu-item#nuestros-frescos",
			"menu-item#folletos",
			"menu-item#personas",
			"menu-item#trabajar-en-alimerka"
		],
		"title": "Footer block content items"
	},
	"rich-text#productoTitle": {
		"props": {
			"text": "Product",
			"blockClass": "heading"
		},
		"title": "Footer block title"
	},
	"menu-item#nuestros-frescos": {
		"props": {
			"id": "menu-item-nuestros-frescos",
			"type": "custom",
			"iconId": null,
			"highlight": false,
			"blockClass": "footer-menu-items",
			"itemProps": {
				"type": "internal",
				"href": "#",
				"noFollow": false,
				"tagTitle": "Ourfrescoes",
				"text": "Our frescoes"
			}
		},
		"title": "Footer block item"
	},
	"menu-item#folletos": {
		"props": {
			"id": "menu-item-folletos",
			"type": "custom",
			"iconId": null,
			"highlight": false,
			"blockClass": "footer-menu-items",
			"itemProps": {
				"type": "internal",
				"href": "#",
				"noFollow": false,
				"tagTitle": "Flyers",
				"text": "Flyers"
			}
		},
		"title": "Footer block item"
	},
	"menu-item#personas": {
		"props": {
			"id": "menu-item-personas",
			"type": "custom",
			"iconId": null,
			"highlight": false,
			"blockClass": "footer-menu-items",
			"itemProps": {
				"type": "internal",
				"href": "#",
				"noFollow": false,
				"tagTitle": "People",
				"text": "People"
			}
		},
		"title": "Footer block item"
	},
	"menu-item#trabajar-en-alimerka": {
		"props": {
			"id": "menu-item-trabajar-en-alimerka",
			"type": "custom",
			"iconId": null,
			"highlight": false,
			"blockClass": "footer-menu-items",
			"itemProps": {
				"type": "internal",
				"href": "#",
				"noFollow": false,
				"tagTitle": "Workinvtex",
				"text": "Work in VTEX"
			}
		},
		"title": "Footer block item"
	},
	"vtex.menu@2.x:menu#Cliente": {
		"props": {
			"orientation": "vertical",
			"blockClass": "footer-cliente"
		},
		"children": [
			"flex-layout.col#menuCliente"
		]
	},
	"flex-layout.col#menuCliente": {
		"children": [
			"rich-text#clienteTitle",
			"menu-item#nuestrosSupermercados",
			"menu-item#alimerkaOnline",
			"menu-item#alimerkaApp",
			"menu-item#compra",
			"menu-item#tarjeta"
		]
	},
	"rich-text#clienteTitle": {
		"props": {
			"text": "Client",
			"blockClass": "heading"
		},
		"title": "Footer block title"
	},
	"menu-item#nuestrosSupermercados": {
		"props": {
			"id": "menu-item-nuestrosSupermercados",
			"type": "custom",
			"iconId": null,
			"highlight": false,
			"blockClass": "footer-menu-items",
			"itemProps": {
				"type": "internal",
				"href": "#",
				"noFollow": false,
				"tagTitle": "Oursupermarkets",
				"text": "Our supermarkets"
			}
		},
		"title": "Footer block item"
	},
	"menu-item#alimerkaOnline": {
		"props": {
			"id": "menu-item-alimerkaOnline",
			"type": "custom",
			"iconId": null,
			"highlight": false,
			"blockClass": "footer-menu-items",
			"itemProps": {
				"type": "internal",
				"href": "#",
				"noFollow": false,
				"tagTitle": "alimerkaOnline",
				"text": "VTEX online"
			}
		},
		"title": "Footer block item"
	},
	"menu-item#alimerkaApp": {
		"props": {
			"id": "menu-item-alimerkaApp",
			"type": "custom",
			"iconId": null,
			"highlight": false,
			"blockClass": "footer-menu-items",
			"itemProps": {
				"type": "internal",
				"href": "#",
				"noFollow": false,
				"tagTitle": "alimerkaApp",
				"text": "VTEX app"
			}
		},
		"title": "Footer block item"
	},
	"menu-item#compra": {
		"props": {
			"id": "menu-item-compra",
			"type": "custom",
			"iconId": null,
			"highlight": false,
			"blockClass": "footer-menu-items",
			"itemProps": {
				"type": "internal",
				"href": "#",
				"noFollow": false,
				"tagTitle": "buy",
				"text": "Buy as you want"
			}
		},
		"title": "Footer block item"
	},
	"menu-item#tarjeta": {
		"props": {
			"id": "menu-item-tarjeta",
			"type": "custom",
			"iconId": null,
			"highlight": false,
			"blockClass": "footer-menu-items",
			"itemProps": {
				"type": "internal",
				"href": "#",
				"noFollow": false,
				"tagTitle": "card",
				"text": "Card VTEX"
			}
		},
		"title": "Footer block item"
	},
	"vtex.menu@2.x:menu#Sobre": {
		"props": {
			"orientation": "vertical",
			"blockClass": "footer-cliente"
		},
		"children": [
			"flex-layout.col#menuSobre"
		]
	},
	"flex-layout.col#menuSobre": {
		"children": [
			"rich-text#sobreTitle",
			"menu-item#origen",
			"menu-item#elGrupo",
			"menu-item#modeloNegocio",
			"menu-item#principiosCorporativos",
			"menu-item#fundacion",
			"menu-item#patrocinios" 
		]
	},
	"rich-text#sobreTitle": {
		"props": {
			"text": "About to VTEX",
			"blockClass": "heading"
		},
		"title": "Footer block title"
	},
	"menu-item#origen": {
		"props": {
			"id": "menu-item-origen",
			"type": "custom",
			"iconId": null,
			"highlight": false,
			"blockClass": "footer-menu-items",
			"itemProps": {
				"type": "internal",
				"href": "#",
				"noFollow": false,
				"tagTitle": "Origin",
				"text": "Origin and history"
			}
		},
		"title": "Footer block item"
	},
	"menu-item#elGrupo": {
		"props": {
			"id": "menu-item-elGrupo",
			"type": "custom",
			"iconId": null,
			"highlight": false,
			"blockClass": "footer-menu-items",
			"itemProps": {
				"type": "internal",
				"href": "#",
				"noFollow": false,
				"tagTitle": "theGroup",
				"text": "The group"
			}
		},
		"title": "Footer block item"
	},
	"menu-item#modeloNegocio": {
		"props": {
			"id": "menu-item-modeloNegocio",
			"type": "custom",
			"iconId": null,
			"highlight": false,
			"blockClass": "footer-menu-items",
			"itemProps": {
				"type": "internal",
				"href": "#",
				"noFollow": false,
				"tagTitle": "BusinessModel",
				"text": "Business model"
			}
		},
		"title": "Footer block item"
	},
	"menu-item#principiosCorporativos": {
		"props": {
			"id": "menu-item-principiosCorporativos",
			"type": "custom",
			"iconId": null,
			"highlight": false,
			"blockClass": "footer-menu-items",
			"itemProps": {
				"type": "internal",
				"href": "#",
				"noFollow": false,
				"tagTitle": "corporatePrinciples",
				"text": "Corporate principles"
			}
		},
		"title": "Footer block item"
	},
	"menu-item#fundacion": {
		"props": {
			"id": "menu-item-fundacion",
			"type": "custom",
			"iconId": null,
			"highlight": false,
			"blockClass": "footer-menu-items",
			"itemProps": {
				"type": "internal",
				"href": "#",
				"noFollow": false,
				"tagTitle": "Foundation",
				"text": "VTEX Foundation"
			}
		},
		"title": "Footer block item"
	},
	"menu-item#patrocinios": {
		"props": {
			"id": "menu-item-patrocinios",
			"type": "custom",
			"iconId": null,
			"highlight": false,
			"blockClass": "footer-menu-items",
			"itemProps": {
				"type": "internal",
				"href": "#",
				"noFollow": false,
				"tagTitle": "sponsorships",
				"text": "Sponsorships"
			}
		},
		"title": "Footer block item"
	},
	"vtex.menu@2.x:menu#contact": {
		"props": {
			"orientation": "vertical",
			"blockClass": "footer-cliente"
		},
		"children": [
			"flex-layout.col#contact"
		]
	},
	"flex-layout.col#contact": {
		"children": [
			"rich-text#contactTitle",
			"flex-layout.col#contact-content"
		],
		"props": {
			"blockClass": "contact-col"
		}
	},
	"rich-text#contactTitle": {
		"props": {
			"text": "Ask questions or buy over the phone",
			"blockClass": "heading"
		},
		"title": "Footer block title"
	},
	"flex-layout.col#contact-content": {
		"children": [
			"flex-layout.col#contact1",
			"flex-layout.col#contact2", 
			"rich-text#hours"
		],
		"props": {
			"blockClass": "contact-content"
		}
	},
	"flex-layout.col#contact1": {
		"children" : [
			"rich-text#titleContact1",
			"link#contact1"
		],
		"props": {
			"blockClass": "contact1"
		}
	},
	"flex-layout.col#contact2": {
		"children" : [
			"rich-text#titleContact2",
			"link#contact2"
		],
		"props": {
			"blockClass": "contact1"
		}
	},
	"rich-text#titleContact1": {
		"props": {
			"text": "For metropolitan regions:",
			"blockClass": "contact-footer"
		},
		"title": "Footer block title"
	},
	"link#contact1": {
		"title": "Link",
        "props": {
            "label": "0200-4341",
            "href": "#",
            "blockClass": "contact-footer-link"
        }
	}, 	
	"rich-text#titleContact2": {
		"props": {
			"text": "For other regions:",
			"blockClass": "contact-footer"
		},
		"title": "Footer block title"
	},
	"link#contact2": {
		"title": "Link",
        "props": {
            "label": "0200-4341",
            "href": "#",
            "blockClass": "contact-footer-link"
        }
	}, 	
	"rich-text#hours": {
		"props": {
			"textAlignment": "CENTER",
			"textPosition": "CENTER",
			"text": "*Opening hours:*\nMonday to Sunday, from 08:00 to 21:00\nBrasilia time",
			"textColor": "c-on-emphasis",
			"font": "t-heading-5",
			"blockClass": "help-message"
		}
	}
}