{
  "vtex.menu@2.x:menu#category-menu": {
    "props": {
      "blockClass": "category-menu",
      "experimentalOptimizeRendering": true,
      "items": [
        {
          "id": "menu-item-category-ofertas",
          "type": "custom",
          "blockClass": "category-menu",
          "iconId": null,
          "highlight": false,
          "itemProps": {
            "type": "internal",
            "href": "/fresh---chilled-food/",
            "noFollow": false,
            "tagTitle": "offers",
            "text": "Offers"
          }
        },
        {
          "id": "menu-item-category-maisvendidos",
          "type": "custom",
          "blockClass": "category-maisvendidos",
          "iconId": null,
          "highlight": false,
          "itemProps": {
            "type": "internal",
            "href": "/fresh---chilled-food/",
            "noFollow": false,
            "tagTitle": "bestseller",
            "text": "Best sellers"
          }
        },
        {
          "id": "menu-item-category-maisvendidos",
          "type": "custom",
          "blockClass": "category-maisvendidos",
          "iconId": null,
          "highlight": false,
          "itemProps": {
            "type": "internal",
            "href": "/fresh---chilled-food/",
            "noFollow": false,
            "tagTitle": "bestseller",
            "text": "Best brands"
          }
        },
        {
          "id": "menu-item-category-maisvendidos",
          "type": "custom",
          "blockClass": "category-maisvendidos",
          "iconId": null,
          "highlight": false,
          "itemProps": {
            "type": "internal",
            "href": "/fresh---chilled-food/",
            "noFollow": false,
            "tagTitle": "bestseller",
            "text": "Bakery"
          }
        },
        {
          "id": "menu-item-category-maisvendidos",
          "type": "custom",
          "blockClass": "category-maisvendidos",
          "iconId": null,
          "highlight": false,
          "itemProps": {
            "type": "internal",
            "href": "/fresh---chilled-food/",
            "noFollow": false,
            "tagTitle": "bestseller",
            "text": "Butcher's"
          }
        },
        {
          "id": "menu-item-category-maisvendidos",
          "type": "custom",
          "blockClass": "category-maisvendidos",
          "iconId": null,
          "highlight": false,
          "itemProps": {
            "type": "internal",
            "href": "/fresh---chilled-food/",
            "noFollow": false,
            "tagTitle": "bestseller",
            "text": "Healthy"
          }
        },
        {
          "id": "menu-item-category-maisvendidos",
          "type": "custom",
          "blockClass": "category-maisvendidos",
          "iconId": null,
          "highlight": false,
          "itemProps": {
            "type": "internal",
            "href": "/fresh---chilled-food/",
            "noFollow": false,
            "tagTitle": "bestseller",
            "text": "Cleaning"
          }
        },
        {
          "id": "menu-item-category-maisvendidos",
          "type": "custom",
          "blockClass": "category-maisvendidos",
          "iconId": null,
          "highlight": false,
          "itemProps": {
            "type": "internal",
            "href": "/fresh---chilled-food/",
            "noFollow": false,
            "tagTitle": "bestseller",
            "text": "Own brand"
          }
        },
        {
          "id": "menu-item-category-maisvendidos",
          "type": "custom",
          "blockClass": "category-maisvendidos",
          "iconId": null,
          "highlight": false,
          "itemProps": {
            "type": "internal",
            "href": "/fresh---chilled-food/",
            "noFollow": false,
            "tagTitle": "bestseller",
            "text": "Drinks"
          }
        },
        {
          "id": "menu-item-category-maisvendidos",
          "type": "custom",
          "blockClass": "category-maisvendidos",
          "iconId": null,
          "highlight": false,
          "itemProps": {
            "type": "internal",
            "href": "/fresh---chilled-food/",
            "noFollow": false,
            "tagTitle": "bestseller",
            "text": "Frozen"
          }
        }
      ]
    },
    "children": []
  },


  ///////////////////
  "category-menu": {
    "props": {
      "showAllDepartments": true,
      "showSubcategories": true,
      "menuDisposition": "center",
      "blockClass": "menuDepartments",
      "sortSubcategories": "name",
      "departments": []
    }
  },
  "flex-layout.row#container": {
    "children": [
      "menu-item#container"
    ],
    "props": {
      "blockClass": "menuContainer"
    }
  },
  "menu-item#container": {
    "props": {
      "id": "menu-item-custom-sale",
      "type": "custom",
      "iconId": null,
      "highlight": true,
      "itemProps": {
        "type": "internal",
        "href": "#",
        "noFollow": true,
        "tagTitle": "Compre por departamento",
        "text": "Compre por departamento",
        "blockClass": "depart-menu"
      }
    }
  },
  "menu-item#linkMenu": {
    "props": {
      "blockClass": "linkMenuDrop",
      "id": "menu-item-category-home",
      "type": "custom",
      "iconId": null,
      "highlight": false,
      "itemProps": {
        "type": "internal",
        "href": "/promocoes/",
        "noFollow": false,
        "tagTitle": "Link",
        "text": "Linka"
      }
    },
    "blocks": [
      "vtex.menu@2.x:submenu#category-apparel"
    ]
  },
  "link#dropdown": {
    "props": {
      "href": "/moveis/",
      "label": "VER TUDO",
      "blockClass": "see-more-dropdown"
    }
  },
  "vtex.menu@2.x:submenu#category-apparel": {
    "props": {
      "width": "auto",
      "blockClass": "dropmenu"
    },
    "children": [
      "vtex.menu@2.x:menu#category-apparel"
    ]
  },
  "vtex.menu@2.x:menu#category-apparel": {
    "props": {
      "orientation": "vertical",
      "blockClass": "dropmenu"
    },
    "children": [
      "menu-item#linkMenu2",
      "menu-item#linkMenu3",
      "menu-item#linkMenu4",
      "link#dropdown"
    ]
  },
  "menu-item#linkMenu2": {
    "props": {
      "blockClass": "linkMenu",
      "id": "menu-item-category-home",
      "type": "custom",
      "iconId": null,
      "highlight": false,
      "itemProps": {
        "type": "internal",
        "href": "#",
        "noFollow": false,
        "tagTitle": "Link",
        "text": "Link"
      },
      "blocks": [
        "vtex.menu@2.x:submenu#link"
      ]
    }
  },
  "vtex.menu@2.x:submenu#link": {
    "children": [
      "vtex.menu@2.x:menu#category-apparel"
    ]
  },
  "rich-text#submenu": {
    "props": {
      "textAlignment": "CENTER",
      "textPosition": "CENTER",
      "text": "Visit our [help](https://help.vtex.com/en/faq/what-is-vtex-io) section.\n*Be Bold!*\n**This is italic**",
      "textColor": "c-on-emphasis",
      "font": "t-heading-5",
      "blockClass": "help-message"
    }
  },
  "vtex.menu@2.x:menu#submenulink": {
    "children": [
      "vtex.menu@2.x:menu#category-apparel"
    ]
  },
  "menu-item#linkMenu3": {
    "props": {
      "blockClass": "linkMenu",
      "id": "menu-item-category-home",
      "type": "custom",
      "iconId": null,
      "highlight": false,
      "itemProps": {
        "type": "internal",
        "href": "/promocoes/",
        "noFollow": false,
        "tagTitle": "Link",
        "text": "Link"
      }
    }
  },
  "menu-item#linkMenu4": {
    "props": {
      "blockClass": "linkMenu",
      "id": "menu-item-category-home",
      "type": "custom",
      "iconId": null,
      "highlight": false,
      "itemProps": {
        "type": "internal",
        "href": "/promocoes/",
        "noFollow": false,
        "tagTitle": "Link",
        "text": "Link"
      }
    }
  }
/*   "menu-item#linkMenu5": {
    "props": {
      "blockClass": "linkMenu",
      "id": "menu-item-category-home",
      "type": "custom",
      "iconId": null,
      "highlight": false,
      "itemProps": {
        "type": "internal",
        "href": "/promocoes/",
        "noFollow": false,
        "tagTitle": "Link",
        "text": "Link"
      }
    }
  }, */
/*   "menu-item#linkMenu6": {
    "props": {
      "blockClass": "linkMenu",
      "id": "menu-item-category-home",
      "type": "custom",
      "iconId": null,
      "highlight": false,
      "itemProps": {
        "type": "internal",
        "href": "/promocoes/",
        "noFollow": false,
        "tagTitle": "Link",
        "text": "Link"
      }
    }
  }, */
 /*  "menu-item#linkMenuCartao": {
    "props": {
      "blockClass": "linkMenugreen",
      "id": "menu-item-category-home",
      "type": "custom",
      "iconId": null,
      "highlight": false,
      "itemProps": {
        "type": "internal",
        "href": "/promocoes/",
        "noFollow": false,
        "tagTitle": "Link",
        "text": "Cartão Quero-Quero"
      }
    }
  }, */
/*   "menu-item#Ofertas": {
    "props": {
      "blockClass": "linkMenuMobile",
      "id": "menu-item-category-home",
      "type": "custom",
      "iconId": null,
      "highlight": false,
      "itemProps": {
        "type": "internal",
        "href": "/ofertas/",
        "noFollow": false,
        "tagTitle": "Offers",
        "text": "Offers"
      }
    }
  }, */
/*   "menu-item#Novidades": {
    "props": {
      "blockClass": "linkMenuMobile",
      "id": "menu-item-category-home",
      "type": "custom",
      "iconId": null,
      "highlight": false,
      "itemProps": {
        "type": "internal",
        "href": "/novidades/",
        "noFollow": false,
        "tagTitle": "Novidades",
        "text": "Novidades"
      }
    }
  }, */
/*   "menu-item#Promocoes": {
    "props": {
      "blockClass": "linkMenuMobile",
      "id": "menu-item-category-home",
      "type": "custom",
      "iconId": null,
      "highlight": false,
      "itemProps": {
        "type": "internal",
        "href": "/promocoes/",
        "noFollow": false,
        "tagTitle": "Promocoes",
        "text": "Promocoes"
      }
    }
  }, */
/*   "menu-item#more": {
    "props": {
      "id": "menu-item-custom-sale",
      "type": "custom",
      "iconId": null,
      "highlight": false,
      "itemProps": {
        "type": "internal",
        "href": "#",
        "noFollow": true,
        "tagTitle": "More",
        "text": "More"
      }
    },
    "blocks": [
      "vtex.menu@2.x:submenu#more"
    ]
  }, */
 /*  "vtex.menu@2.x:submenu#more": {
    "props": {
      "width": "100%"
    },
    "children": [
      "flex-layout.row#menu-more"
    ]
  },
  "flex-layout.row#menu-more": {
    "children": [
      "flex-layout.col#menu-more-1"
    ]
  },
  "flex-layout.col#menu-more-1": {
    "children": [
      "vtex.menu@2.x:menu#more"
    ]
  }, */
  // "flex-layout.col#menu-more-2": {
  //   "children": [
  //     "info-card#home"
  //   ]
  // },
/*   "vtex.menu@2.x:menu#more": {
    "props": {
      "orientation": "vertical"
    },
    "children": [
      "menu-item#about-us"
    ]
  } */
  /* "menu-item#categoryMenu": {
    "props": {
      "blockClass": "departmentMenu",
      "id": "menu-item-custom-sale",
      "type": "custom",
      "iconId": null,
      "highlight": true,
      "itemProps": {
        "type": "internal",
        "href": "#",
        "noFollow": true,
        "tagTitle": "Departamento",
        "text": "Departamento"
      }
    },
    "blocks": [
      "vtex.menu@2.x:submenu#categoryMenu"
    ]
  }, */
 /*  "vtex.menu@2.x:submenu#categoryMenu": {
    "props": {
      "width": "100%"
    },
    "children": [
      "flex-layout.row#menu-categoryMenu"
    ]
  }, */
 /*  "flex-layout.row#menu-categoryMenu": {
    "props": {
      "blockClass": "menu-categoryMenu"
    },
    "children": [
      "flex-layout.col#menu-categoryMenu-1",
      "flex-layout.col#menu-categoryMenu-2",
      "flex-layout.col#menu-categoryMenu-3"
      // "image#categoryMenu"
    ]
  }, */
/*   "flex-layout.col#menu-categoryMenu-1": {
    "props": {
      "blockClass": "menu-categoryMenu-col"
    },
    "children": [
      "vtex.menu@2.x:menu#categoryMenu"
    ]
  },
  "flex-layout.col#menu-categoryMenu-2": {
    "props": {
      "blockClass": "menu-categoryMenu-col"
    },
    "children": [
      "vtex.menu@2.x:menu#categoryMenu"
    ]
  },
  "flex-layout.col#menu-categoryMenu-3": {
    "props": {
      "blockClass": "menu-categoryMenu-col"
    },
    "children": [
      "vtex.menu@2.x:menu#categoryMenu"
    ]
  }, */
/*   "flex-layout.col#menu-categoryMenu-4": {
    "children": [
      // "info-card#category"
    ]
  }, */
/*   "image#categoryMenu": {
    "props": {
      "src": "assets/banner-infocard2.png",
      "maxHeight": 300,
      "blockClass": "image-header"
    }
  }, */
 /*  "info-card#category": {
    "props": {
      "id": "info-card-header",
      "isFullModeStyle": false,
      "textPosition": "left",
      "imageUrl": "assets/banner-infocard2.png",
      "headline": " ",
      "callToActionText": "",
      "callToActionUrl": "/sale/d",
      "blockClass": "info-card-header",
      "textAlignment": "center"
    }
  }, */
/*   "vtex.menu@2.x:menu#categoryMenu": {
    "props": {
      "orientation": "vertical",
      "blockClass": "title-menu"
    },
    "children": [
      "menu-item#about-us1",
      "menu-item#about-us",
      "menu-item#about-us",
      "menu-item#about-us"
    ]
  },
  "menu-item#about-us1": {
    "props": {
      "id": "menu-item-about-us",
      "type": "custom",
      "iconId": null,
      "highlight": true,
      "itemProps": {
        "type": "internal",
        "href": "/about-us",
        "noFollow": true,
        "tagTitle": "Sub Categoria",
        "text": "Sub Categoria"
      },
      "blocks": [
        "vtex.menu@2.x:submenu#padaria"
      ]
    }
  },
  "menu-item#about-us": {
    "props": {
      "id": "menu-item-about-us",
      "type": "custom",
      "iconId": null,
      "highlight": false,
      "itemProps": {
        "type": "internal",
        "href": "/about-us",
        "noFollow": true,
        "tagTitle": "Sub Categoria",
        "text": "Sub Categoria"
      }
    }
  } */
}