{
	"header": {
		"blocks": [
			"header-layout.desktop",
			"header-layout.mobile"
		]
	},
	"header.full": {
		"blocks": [
			"header-layout.desktop",
			"header-layout.mobile"
		],
		"title": "Header"
	},
	/*Header Desktop*/
	"header-layout.desktop": {
		"children": [
			"flex-layout.row#topbar",
			"flex-layout.row#tabs-header-desktop",
			"flex-layout.row#row-4-desktop"
		],
		"title": "Header - Desktop"
	},

  "flex-layout.row#topbar": {
    "children": ["flex-layout.row#top-bar"],
    "props": {
      "fullWidth": true
    },
    "title": "Top Bar"
  },
	"flex-layout.col#spacer": {
		"props": {
			"width": "grow"
		}
	},
	"sticky-layout#3-desktop": {
		"props": {
			"blockClass": "sticky-header"
		},
		"children": [
			"flex-layout.row#3-desktop"
		]
	},
	"flex-layout.row#3-desktop": {
		"props": {
			"blockClass": "main-header",
			"horizontalAlign": "center",
			"verticalAlign": "center",
			"preventHorizontalStretch": true,
			"preventVerticalStretch": true,
			"fullWidth": true
		},
		"children": [
			"flex-layout.col#logo-desktop",
			"search-bar#biggy",
			"flex-layout.row#icons-desktop"
		]
	},
	"flex-layout.row#icons-desktop": {
		"props": {
			"blockClass": "icons-header"
		},
		"children": [
			"link#my-requests",
			"login",
			"minicart.v2"
		]
	},
	"link#my-requests": {
		"props": {
			"label": "My requests",
			"href": "/#",
			"blockClass": "my-requests"
		}
	},
	"login": {
		"props": {
			"emailAndPasswordTitle": "Login with e-mail e password",
			"accessCodeTitle": "Receive access code by e-mail",
			"emailPlaceholder": "e-mail",
			"passwordPlaceholder": "password",
			"showPasswordVerificationIntoTooltip": true,
			"iconLabel": "Login",
			"hideIconLabel": false
		}
	},
	"login#mobile": {
		"props": {
			"emailAndPasswordTitle": "Login with e-mail e password",
			"accessCodeTitle": "Receive access code by e-mail",
			"emailPlaceholder": "e-mail",
			"passwordPlaceholder": "password",
			"showPasswordVerificationIntoTooltip": true,
			"hideIconLabel": true
		}
	},
	"flex-layout.col#logo-desktop": {
		"props": {
			"verticalAlign": "middle",
			"blockClass": "logo-desktop"
		},
		"children": [
			"logo#desktop"
		]
	},
	"menu-item#wish-list": {
		"props": {
			"blockClass": "wishlist-custom",
			"id": "menu-item-wish-list",
			"type": "custom",
			"highlight": false,
			"itemProps": {
				"type": "internal",
				"href": "/wishlist",
				"noFollow": false,
				"tagTitle": "wishlist"
			},
			"iconProps": {
				"id": "list-icon",
				"size": 32,
				"viewBox": "-3 -3 24 24",
				"activeClassName": "wishlist-active-heart",
				"mutedClassName": "wishlist-muted-heart"
			},
			"iconToTheLeft": true
		}
	},
	"logo#desktop": {
		"props": {
			"title": "Logo",
			"href": "/",
			"url": "assets/vtex_logo.svg.png",
			"width": "150"
		}
	},
	"drawer": {
		"children": [
			"menu#drawer"
		]
	},
	"menu#drawer": {
		"children": [
			"menu#header-mobile"
		],
		"props": {
			"orientation": "vertical"
		}
	},
	"logo#mobile": {
		"props": {
			"title": "Logo",
			"href": "/",
			"url": "assets/vtex_logo.svg.png",
			"width": "58"
		}
	},
	"flex-layout.row#tabs-header-desktop": {
		"children": [
			"tab-layout#header"
		],
		"props": {
			"blockClass": "flex-row-header"
		}
	},
	"flex-layout.row#tabs-header-container": {
		"children": ["tab-list#header","flex-layout.col#modal-selector"],
		"props": {
			"blockClass": "tabs-header-container"
		}
	},
	"tab-layout#header": {
		"children": [
			"flex-layout.row#tabs-header-container",
			"tab-content#header"
		],
		"props": {
			"blockClass": "container",
			"defaultActiveTabId": "header1"
		}
	},
	"tab-list#header": {
		"children": [
			"tab-list.item#header1",
			"tab-list.item#header2",
			"tab-list.item#header3"
		],
		"props": {
			"blockClass": "listContainer"
		}
	},
	"tab-list.item#header1": {
		"props": {
			"tabId": "header1",
			"label": "shopping",
			"blockClass": "listItem"
		}
	},
	"tab-list.item#header2": {
		"props": {
			"tabId": "header2",
			"label": "marketplace",
			"defaultActiveTab": true,
			"blockClass": "listItemActive"
		}
	},
	"tab-list.item#header3": {
		"props": {
			"tabId": "header3",
			"label": "service",
			"blockClass": "listItem"
		}
	},
	"tab-content#header": {
		"children": [
			"tab-content.item#header1",
			"tab-content.item#header2",
			"tab-content.item#header3"
		],
		"props": {
			"blockClass": "contentContainer"
		}
	},
	"tab-content.item#header1": {
		"children": [
			"sticky-layout#3-desktop"
		],
		"props": {
			"tabId": "header1",
			"blockClass": "contentItem"
		}
	},
	"tab-content.item#header2": {
		"children": [
			"sticky-layout#3-desktop"
		],
		"props": {
			"tabId": "header2",
			"blockClass": "contentItem"
		}
	},
	"tab-content.item#header3": {
		"children": [
			"sticky-layout#3-desktop"
		],
		"props": {
			"tabId": "header3",
			"blockClass": "contentItem"
		}
	},
	"flex-layout.row#row-4-desktop": {
		"children": [
			"flex-layout.col#4-desktop",
			"flex-layout.col#mega-menu"
		],
		"props": {
			"blockClass": "rowFour"
		}
	},
	"flex-layout.col#4-desktop": {
		"children": [
			"flex-layout.col#trigger-mega-menu",
			"vtex.menu@2.x:menu#category-menu"
		],
		"props": {
			"blockClass": "col4MegaMenu"
		}
	},
	"flex-layout.col#mega-menu": {
		"children": [
			"mega-menu"
		],
		"props": {
			"blockClass": "menuContainer"
		}
	},
	"flex-layout.col#trigger-mega-menu": {
		"props": {
			"verticalAlign": "middle",
			"blockClass": "triggerMegaMenu"
		},
		"children": [
			"mega-menu-trigger-btn"
		]
	},
	"mega-menu": {
		"props": {
			"defaultDepartmentActive": "Bebidas"
		}
	},
	"flex-layout.row#modal-selector": {
		"children": [
			// "add-region"
			"modal-regionalization"
		]
	},
	"flex-layout.col#modal-selector": {
		"children": [
			// "add-region"
			"modal-regionalization"
		],
		"props":{
			"marginLeft": 6,
			"marginRight": 6,
			"blockClass": "modalReg"
		}
	},
	// "rich-text#modal": {
	// 	"props": {
	// 		"text": "modal"
	// 	}
	// },
	/*Header Mobile*/
	"header-layout.mobile": {
		"children": [
			"flex-layout.row#1-mobile",
			"sticky-layout#1-mobile",
			"sticky-layout#1-tablet",
			"flex-layout.row#3-mobile",
			"flex-layout.row#4-mobile"
		],
		"title": "Header - Mobile"
	},
	"sticky-layout#1-tablet": {
		"props": {
			"blockClass": "sticky-tablet"
		},
		"children": [
			"flex-layout.row#main-tablet"
		],
		"title": "Sticky Layout - Tablet"
	},
	"flex-layout.row#main-tablet": {
		"children": [
			"drawer",
			"logo#mobile",
			"flex-layout.col#spacer",
			"flex-layout.row#icons-tablet"
		],
		"props": {
			"blockClass": "main-header-mobile",
			"preventHorizontalStretch": true,
			"preserveLayoutOnMobile": true,
			"fullWidth": true
		}
	},
	"flex-layout.row#icons-tablet": {
		"props": {
			"blockClass": "icons-header"
		},
		"children": [
			"menu-item#wish-list",
			"login#mobile",
			"minicart.v2"
		]
	},
	"sticky-layout#1-mobile": {
		"props": {
			"blockClass": "sticky-mobile"
		},
		"children": [
			"flex-layout.row#2-mobile"
		]
	},
	"flex-layout.row#1-mobile": {
		"props": {
			"blockClass": "menu-link",
			"horizontalAlign": "center",
			"preventHorizontalStretch": true,
			"preventVerticalStretch": true,
			"fullWidth": true
		},
		"children": [
			"flex-layout.row#topbar-mobile"
		]
	}, 
  "flex-layout.row#topbar-mobile": {
    "props": {
      "blockClass": "menu-link-top-mobile",
      "horizontalAlign": "center"
    },
    "children": ["flex-layout.row#topbar"]
  },
	"flex-layout.row#2-mobile": {
		"children": [
			"drawer",
			"logo#mobile",
			"flex-layout.col#spacer",
			"flex-layout.row#icons-mobile"
		],
		"props": {
			"blockClass": "main-header-mobile",
			"preventHorizontalStretch": true,
			"preserveLayoutOnMobile": true,
			"fullWidth": true
		}
	},
	"flex-layout.row#3-mobile": {
		"props": {
			"blockClass": "row-searchbar",
			"horizontalAlign": "center",
			"fullWidth": true
		},
		"children": [
			"search-bar#biggy"
		]
	},
	"flex-layout.row#4-mobile": {
		"props": {
			"blockClass": "row-localization-mobile",
			"fullWidth": true
		}
	},
	"flex-layout.row#icons-mobile": {
		"props": {
			"blockClass": "icons-header"
		},
		"children": [
			"menu-item#wish-list-mobile",
			"login#mobile",
			"minicart.v2"
		]
	},
	"menu-item#wish-list-mobile": {
		"props": {
			"blockClass": "wishlist-custom",
			"id": "menu-item-wish-list",
			"type": "custom",
			"highlight": false,
			"itemProps": {
				"type": "internal",
				"href": "/wishlist",
				"noFollow": false,
				"tagTitle": "wishlist",
				"text": ""
			},
			"iconProps": {
				"id": "list-icon",
				"size": 32,
				"viewBox": "-3 -3 22 20",
				"activeClassName": "wishlist-active-heart",
				"mutedClassName": "wishlist-muted-heart"
			},
			"iconToTheLeft": true
		}
	}
}