<svg xmlns="http://www.w3.org/2000/svg" width="23.86" height="21.421" viewBox="0 0 23.86 21.421">
  <g id="Group_5981" data-name="Group 5981" transform="translate(0.75 0.75)">
    <g id="Group_118" data-name="Group 118" transform="translate(0 0)">
      <path id="Path_5" data-name="Path 5" d="M14.033,31.016A1.016,1.016,0,1,1,13.016,30,1.016,1.016,0,0,1,14.033,31.016Z" transform="translate(-4.885 -12.112)" fill="#8b8b8b" stroke="#8b8b8b" stroke-linecap="round" stroke-linejoin="round" stroke-width="1.5"/>
      <path id="Path_6" data-name="Path 6" d="M30.533,31.016A1.016,1.016,0,1,1,29.516,30,1.016,1.016,0,0,1,30.533,31.016Z" transform="translate(-10.205 -12.112)" fill="#8b8b8b" stroke="#8b8b8b" stroke-linecap="round" stroke-linejoin="round" stroke-width="1.5"/>
      <path id="Path_7" data-name="Path 7" d="M1.5,1.5H5.565L8.289,15.109a2.033,2.033,0,0,0,2.033,1.636H20.2a2.033,2.033,0,0,0,2.033-1.636L23.86,6.582H6.582" transform="translate(-1.5 -1.5)" fill="none" stroke="#8b8b8b" stroke-linecap="round" stroke-linejoin="round" stroke-width="1.5"/>
    </g>
  </g>
</svg>
