{
    "flex-layout.row#deals-v2": {
		"children": [
			"slider-layout#deals-v2"
		],
		"props": {
			"blockClass": "deals-not-found"
		},
		"title": "Deals"
	},
	"slider-layout#deals-v2": {
		"props": {
			"itemsPerPage": {
				"desktop": 4,
				"tablet": 2,
				"phone": 1
			},
			"infinite": true,
			"showNavigationArrows": "mobileOnly",
			"showPaginationDots": "never",
			"blockClass": "deals-not-found"
		},
		"children": [
			"flex-layout.col#deals1-v2",
			"flex-layout.col#deals2-v2",
			"flex-layout.col#deals3-v2",
			"flex-layout.col#deals4-v2",
			"flex-layout.col#deals5-v2"
		]
	},
	"flex-layout.col#deals1-v2": {
		"children": [
			"image#deal1",
			"rich-text#deal1"
		],
		"props": {
			"blockClass": "deals-not-found"
		},
		"title": "Deals - Item 1"
	},
	"image#deal1": {
		"props": {
            "src": "assets/shop.png",
			"maxHeight": "40px"
		},
		"title": "Deals - Image 1"
	},
	"rich-text#deal1": {
		"props": {
			"text": "### Click and Collect \n In store",
			"blockClass": "deals-not-found"
		},
		"title": "Deals - Texto 1"
	},
	"flex-layout.col#deals2-v2": {
		"children": [
			"image#deal2",
			"rich-text#deal2"
		],
		"props": {
			"blockClass": "deals-not-found"
		},
		"title": "Deals - Item 2"
	},
	"image#deal2": {
		"props": {
            "src": "assets/delivery-truck.png",
			"maxHeight": "40px"
		},
		"title": "Deals - Image 2"
	},
	"rich-text#deal2": {
		"props": {
			"text": "### Delivery \n To your home",
			"blockClass": "deals-not-found"
		},
		"title": "Deals - Texto 2"
	},
	"flex-layout.col#deals3-v2": {
		"children": [
			"image#deal3",
			"rich-text#deal3"
		],
		"props": {
			"blockClass": "deals-not-found"
		},
		"title": "Deals - Item 3"
	},
	"image#deal3": {
		"props": {
            "src": "assets/pin.png",
			"maxHeight": "40px"
		},
		"title": "Deals - Image 3"
	},
	"rich-text#deal3": {
		"props": {
			"text": "### Localization \n Visit our stores",
			"blockClass": "deals-not-found"
		},
		"title": "Deals - Texto 3"
	},
	"flex-layout.col#deals4-v2": {
		"children": [
			"image#deal4",
			"rich-text#deal4"
		],
		"props": {
			"blockClass": "deals-not-found"
		},
		"title": "Deals - Item 4"
	},
	"image#deal4": {
		"props": {
            "src": "assets/offers.png",
			"maxHeight": "40px"
		},
		"title": "Deals - Image 4"
	},
	"rich-text#deal4": {
		"props": {
			"text": "### The best place \n To save money",
			"blockClass": "deals-not-found"
		},
		"title": "Deals - Texto 4"
	},
	"flex-layout.col#deals5-v2": {
		"children": [
			"image#deal5",
			"rich-text#deal5"
		],
		"props": {
			"blockClass": "deals-not-found"
		},
		"title": "Deals - Item 5"
	},
	"image#deal5": {
		"props": {
			"src": "assets/offers.png",
			"maxHeight": "40px"
		},
		"title": "Deals - Image 5"
	},
	"rich-text#deal5": {
		"props": {
			"text": "### Variety \n More than 500 brands",
			"blockClass": "deals-not-found"
		},
		"title": "Deals - Text 5"
	}
}