{
  "store.home": {
    "blocks": [
      "responsive-layout.desktop#home",
      "responsive-layout.tablet#home",
      "responsive-layout.phone#home"
    ]
  },
  /* Estrutura de ResponsiveLayoutsHome*/
  "responsive-layout.desktop#home": {
    "children": ["disposition-layout#home-desktop"],
    "title": "Home - Desktop"
  },
  "disposition-layout#home-desktop": {
    "children": [
      // "flex-layout.row#minibanner",
      "list-context.image-list#demo",
      "flex-layout.row#deals-v2", 
      "slider-layout#slider-category",
      "flex-layout.row#shelf-title1",
      "flex-layout.row#shelf1",
      "flex-layout.row#shelf-title2",
      "flex-layout.row#shelf2",
      "flex-layout.row#secondbanner", 
      "flex-layout.row#brands-home"
    ],
    "props": {
      "ssr": false,
      "disposition": [
        {
          "order": 1
        },
        {
          "order": 2
        },
        {
          "order": 3
        },
        {
          "order": 4
        },
        {
          "order": 5
        },
        {
          "order": 6
        },
        {
          "order": 7
        },
        {
          "order": 8
        },
        {
          "order": 9
        }
      ]
    }
  },
  "flex-layout.row#minibanner": {
    "children": ["image#minibannermenu"]
  },
  "image#minibannermenu": {
    "props": {
      "src": "assets/topHomeImage.png"
    }
  },
  "list-context.image-list#demo": {
    "children": ["slider-layout#demo-images"],
    "props": {
      "height": 328,
	  "fullWidth": true,
      "images": [
        {
          "image": "assets/grocery-banner-01.png",
          "mobileImage": "assets/banner-mobile.png"
        },
        {
          "image": "assets/grocery-banner-03.png",
          "mobileImage": "assets/banner-mobile.png"
        }
      ]
    },
    "title": "Home - Carousel"
  },
  "slider-layout#demo-images": {
    "props": {
      "itemsPerPage": {
        "desktop": 1,
        "tablet": 1,
        "phone": 1
      },
      "infinite": true,
      "showNavigationArrows": "desktopOnly",
      "showPaginationDots": "always",
      "blockClass": "carousel",
      "autoplay": {
        "timeout": 6000,
        "stopOnHover": true
      }
    },
    "title": "Home - Slider"
  },
  "flex-layout.row#shelf-title1": {
    "children": ["rich-text#shelf-title1"],
    "props": {
      "blockClass": ["shelf-title"]
    },
    "title": "Home - Shelf 1 - Title"
  },
  "rich-text#shelf-title1": {
    "props": {
      "text": "## Deals of the Week",
      "blockClass": ["shelfTitle", "shelfTitle-1"]
    },
    "title": "Shelf 1 - Title"
  },
  "flex-layout.row#shelf1": {
    "props": {
      "blockClass": ["home-shelf-1"]
    },
    "children": ["flex-layout.col#shelf"],
    "title": "Home - Shelf 1"
  },
  "flex-layout.col#shelf": {
    "children": ["list-context.product-list#demo1"],
    "props": {
      "width": "100%",
      "horizontalAlign": "center"
    },
    "title": "Shelf 1 - Shelf"
  },
  "list-context.product-list#demo1": {
    "blocks": ["product-summary.shelf#home"],
    "children": ["slider-layout#demo-products1"],
    "props": {
      "orderBy": "OrderByTopSaleDESC"
    },
    "title": "Shelf 1 - Products"
  },
  "slider-layout#demo-products1": {
    "props": {
      "itemsPerPage": {
        "desktop": 4,
        "tablet": 2,
        "phone": 1
      },
      "infinite": true,
      "fullWidth": false,
      "blockClass": "shelf",
      "showPaginationDots": "never",
      "showNavigationArrows": "desktopOnly"
    },
    "title": "Shelf 1 - Slider"
  },
  "flex-layout.col#shelf-banner": {
    "children": ["image#shelf-banner"],
    "props": {
      "width": "25%"
    },
    "title": "Shelf 1 - Banner"
  },
  "image#shelf-banner": {
    "props": {
      "src": "",
      "maxHeight": 516,
      "blockClass": "banner-sales"
    },
    "title": "Shelf 1 - Image"
  },
  "flex-layout.row#banner-home": {
    "children": ["image#banner-home"],
    "props": {
      "blockClass": "banner-home"
    },
    "title": "Home - Banner"
  },
  "image#banner-home": {
    "props": {
      "src": "",
      "maxHeight": 184,
      "blockClass": "banner-home"
    },
    "title": "Banner - Image"
  },
  "flex-layout.row#shelf-title2": {
    "children": ["rich-text#shelf-title2"],
    "props": {
      "blockClass": ["shelf-title"]
    },
    "title": "Home - Shelf 2 - Title"
  },
  "rich-text#shelf-title2": {
    "props": {
      "text": "## Sponsored Products",
      "blockClass": ["shelfTitle", "shelfTitle-2"]
    },
    "title": "Shelf 2 - Title"
  },
  "flex-layout.row#shelf2": {
    "props": {
      "blockClass": ["home-shelf-1"]
    },
    "children": ["list-context.product-list#demo2"],
    "title": "Home - Shelf 2"
  },
  "list-context.product-list#demo2": {
    "blocks": ["product-summary.shelf#home"],
    "children": ["slider-layout#demo-products2"],
    "props": {
      "orderBy": "OrderByTopSaleDESC"
    },
    "title": "Shelf 2 - Products"
  },
  "slider-layout#demo-products2": {
    "props": {
      "itemsPerPage": {
        "desktop": 4,
        "tablet": 2,
        "phone": 1
      },
      "infinite": true,
      "fullWidth": false,
      "blockClass": "shelf",
      "showPaginationDots": "never",
      "showNavigationArrows": "desktopOnly"
    },
    "title": "Shelf 2 - Slider"
  },
  "flex-layout.row#secondbanner": {
    "children": ["image#secondbanner"],
    "props": {
      "fullWidth": true
    }
  },
  "image#secondbanner": {
    "props": {
      "src": "assets/banner-two-home.png",
      "blockClass": "secondbanner"
    }
  },
  "flex-layout.row#card-info": {
    "children": [
      "rich-text#advertising2",
      "list-context.image-list#advertising2"
    ],
    "props": {
      "blockClass": "advertising2"
    }
  },
  "rich-text#advertising2": {
    "props": {
      "text": "Advertising",
      "blockClass": "advertising2"
    }
  },
  "list-context.image-list#advertising2": {
    "children": ["slider-layout#advertising2"],
    "props": {
      "blockClass": "advertising2",
      "height": 250,
      "images": [
        {
          "image": "assets/advertising2.png",
          "description": "something something"
        },
        {
          "image": "assets/advertising2.png",
          "description": "something something"
        },
        {
          "image": "assets/advertising2.png",
          "description": "something something"
        }
      ]
    }
  },
  "slider-layout#advertising2": {
    "props": {
      "itemsPerPage": {
        "desktop": 3
      },
      "blockClass": "advertising2",
      "infinite": false
    }
  }
}
