{
  "flex-layout.row#promo": {
    "children": [
      "flex-layout.col#promo1",
      "flex-layout.col#promo2",
      "flex-layout.col#promo3",
      "flex-layout.col#promo4",
      "flex-layout.col#promo5"
    ],
    "props": {
      "blockClass": "promos"
    }
  },
  "flex-layout.col#promo1": {
    "children": [
      "image#promo1"
    ]
  },
  "image#promo1": {
    "props": {
      "src": "assets/advertising1.png"
    }
  },
  "flex-layout.col#promo2": {
    "children": [
      "image#promo2"
    ]
  },
  "image#promo2": {
    "props": {
      "src": "assets/advertising1.png"
    }
  },
  "flex-layout.col#promo3": {
    "children": [
      "image#promo3"
    ]
  },
  "image#promo3": {
    "props": {
      "src": "assets/advertising1.png"
    }
  },
  "flex-layout.col#promo4": {
    "children": [
      "image#promo4"
    ]
  },
  "image#promo4": {
    "props": {
      "src": "assets/advertising1.png"
    }
  },
  "flex-layout.col#promo5": {
    "children": [
      "image#promo5"
    ]
  },
  "image#promo5": {
    "props": {
      "src": "assets/advertising1.png"
    }
  }
}