{
    "product-assembly-options": {
      "props":{
        "initiallyOpened": "never",
        "blockClass": "as-options"
       },
      "children": [
        "flex-layout.row#product-assembly-options",
        "assembly-option-input-values"
      ]
    },
    "assembly-option-input-values": {
      "props": {
        "optionsDisplay": "select",
        "blockClass": "as-options-values"
      }
    },
    "flex-layout.row#product-assembly-options": {
      "props": {
        "colGap": 2,
        "preserveLayoutOnMobile": true,
        "colSizing": "auto",
        "blockClass": "as-options-values-row"
      },
      "children": [
        "flex-layout.col#product-assembly-middle",
        "flex-layout.col#product-assembly-quantity"
      ]
    },
    "flex-layout.col#product-assembly-quantity": {
      "props": {
        "verticalAlign": "middle"
      },
      "children": [
        "assembly-option-item-quantity-selector"
      ]
    },
    "flex-layout.col#product-assembly-middle": {
      "props": {
        "width": "grow",
        "verticalAlignment": "middle",
        "blockClass": "options-info"
      },
      "children": [
        "assembly-option-item-name",
        "assembly-option-item-price"
      ]
    }
  }
  